%YAML 1.1
%TAG !u! tag:unity3d.com,2011:
--- !u!1001 &3836891812970217999
PrefabInstance:
  m_ObjectHideFlags: 0
  serializedVersion: 2
  m_Modification:
    serializedVersion: 3
    m_TransformParent: {fileID: 0}
    m_Modifications:
    - target: {fileID: -8679921383154817045, guid: 4fd0c640797eb25499954c85a476cf0c, type: 3}
      propertyPath: m_LocalScale.x
      value: 1731.7565
      objectReference: {fileID: 0}
    - target: {fileID: -8679921383154817045, guid: 4fd0c640797eb25499954c85a476cf0c, type: 3}
      propertyPath: m_LocalScale.y
      value: 3165.6506
      objectReference: {fileID: 0}
    - target: {fileID: -8679921383154817045, guid: 4fd0c640797eb25499954c85a476cf0c, type: 3}
      propertyPath: m_LocalScale.z
      value: 3365.3223
      objectReference: {fileID: 0}
    - target: {fileID: -8679921383154817045, guid: 4fd0c640797eb25499954c85a476cf0c, type: 3}
      propertyPath: m_LocalPosition.x
      value: 1006.3
      objectReference: {fileID: 0}
    - target: {fileID: -8679921383154817045, guid: 4fd0c640797eb25499954c85a476cf0c, type: 3}
      propertyPath: m_LocalPosition.y
      value: 61.584873
      objectReference: {fileID: 0}
    - target: {fileID: -8679921383154817045, guid: 4fd0c640797eb25499954c85a476cf0c, type: 3}
      propertyPath: m_LocalPosition.z
      value: 1236.2
      objectReference: {fileID: 0}
    - target: {fileID: -8679921383154817045, guid: 4fd0c640797eb25499954c85a476cf0c, type: 3}
      propertyPath: m_LocalRotation.w
      value: 0.76350343
      objectReference: {fileID: 0}
    - target: {fileID: -8679921383154817045, guid: 4fd0c640797eb25499954c85a476cf0c, type: 3}
      propertyPath: m_LocalRotation.x
      value: -0
      objectReference: {fileID: 0}
    - target: {fileID: -8679921383154817045, guid: 4fd0c640797eb25499954c85a476cf0c, type: 3}
      propertyPath: m_LocalRotation.y
      value: 0.6458038
      objectReference: {fileID: 0}
    - target: {fileID: -8679921383154817045, guid: 4fd0c640797eb25499954c85a476cf0c, type: 3}
      propertyPath: m_LocalRotation.z
      value: -0
      objectReference: {fileID: 0}
    - target: {fileID: -8679921383154817045, guid: 4fd0c640797eb25499954c85a476cf0c, type: 3}
      propertyPath: m_LocalEulerAnglesHint.x
      value: 0
      objectReference: {fileID: 0}
    - target: {fileID: -8679921383154817045, guid: 4fd0c640797eb25499954c85a476cf0c, type: 3}
      propertyPath: m_LocalEulerAnglesHint.y
      value: 80.452
      objectReference: {fileID: 0}
    - target: {fileID: -8679921383154817045, guid: 4fd0c640797eb25499954c85a476cf0c, type: 3}
      propertyPath: m_LocalEulerAnglesHint.z
      value: 0
      objectReference: {fileID: 0}
    - target: {fileID: 919132149155446097, guid: 4fd0c640797eb25499954c85a476cf0c, type: 3}
      propertyPath: m_Name
      value: fbxStairs
      objectReference: {fileID: 0}
    - target: {fileID: 7546967872564555708, guid: 4fd0c640797eb25499954c85a476cf0c, type: 3}
      propertyPath: m_Materials.Array.data[0]
      value: 
      objectReference: {fileID: 2100000, guid: 3f2e578ab76857b459df0f6fe1d8cf59, type: 2}
    - target: {fileID: 7546967872564555708, guid: 4fd0c640797eb25499954c85a476cf0c, type: 3}
      propertyPath: m_Materials.Array.data[1]
      value: 
      objectReference: {fileID: 2100000, guid: 17e59a3189b440a4288a1d3554e30398, type: 2}
    m_RemovedComponents: []
    m_RemovedGameObjects: []
    m_AddedGameObjects: []
    m_AddedComponents: []
  m_SourcePrefab: {fileID: 100100000, guid: 4fd0c640797eb25499954c85a476cf0c, type: 3}
