%YAML 1.1
%TAG !u! tag:unity3d.com,2011:
--- !u!114 &11400000
MonoBehaviour:
  m_ObjectHideFlags: 0
  m_CorrespondingSourceObject: {fileID: 0}
  m_PrefabInstance: {fileID: 0}
  m_PrefabAsset: {fileID: 0}
  m_GameObject: {fileID: 0}
  m_Enabled: 1
  m_EditorHideFlags: 0
  m_Script: {fileID: 11500000, guid: 95e66c6366d904e98bc83428217d4fd7, type: 3}
  m_Name: PlayerTankController
  m_EditorClassIdentifier: 
  _data:
    _json: '{"graph":{"variables":{"Kind":"Flow","collection":{"$content":[],"$version":"A"},"$version":"A"},"controlInputDefinitions":[],"controlOutputDefinitions":[],"valueInputDefinitions":[],"valueOutputDefinitions":[],"title":null,"summary":null,"pan":{"x":0.0,"y":-153.0193},"zoom":1.0,"elements":[{"coroutine":false,"defaultValues":{},"position":{"x":-556.0,"y":-260.0},"guid":"bd1406b6-6cb1-4151-8055-3ff36b4565f2","$version":"A","$type":"Unity.VisualScripting.Update","$id":"9"},{"defaultValues":{},"position":{"x":-22.0,"y":256.0},"guid":"3abd5698-c74d-40b8-83b7-e76643762001","$version":"A","$type":"Unity.VisualScripting.GenericMultiply","$id":"11"},{"defaultValues":{},"position":{"x":169.0,"y":-462.0},"guid":"ebc1b881-484d-43d1-8125-5c5630b8248f","$version":"A","$type":"Unity.VisualScripting.GenericMultiply","$id":"13"},{"member":{"name":"up","parameterTypes":null,"targetType":"UnityEngine.Vector3","targetTypeName":"UnityEngine.Vector3","$version":"A"},"defaultValues":{},"position":{"x":0.0,"y":-337.0},"guid":"fcdf6e54-5adf-4352-940d-c2454b48ec0a","$version":"A","$type":"Unity.VisualScripting.GetMember","$id":"15"},{"defaultValues":{},"position":{"x":-2.0,"y":-100.0},"guid":"64403ca8-4086-423e-8999-a5767e5c24f3","$version":"A","$type":"Unity.VisualScripting.GenericMultiply","$id":"18"},{"defaultValues":{},"position":{"x":166.0,"y":-100.0},"guid":"e29eb7e9-87ed-4915-8bc2-c5ce7952cc40","$version":"A","$type":"Unity.VisualScripting.GenericMultiply","$id":"20"},{"member":{"name":"up","parameterTypes":null,"targetType":"UnityEngine.Vector3","targetTypeName":"UnityEngine.Vector3","$version":"A"},"defaultValues":{},"position":{"x":0.0,"y":29.0},"guid":"f0869b0c-5e67-4c10-9030-019a2c08cebc","$version":"A","$type":"Unity.VisualScripting.GetMember","$id":"22"},{"member":{"name":"back","parameterTypes":null,"targetType":"UnityEngine.Vector3","targetTypeName":"UnityEngine.Vector3","$version":"A"},"defaultValues":{},"position":{"x":-19.0,"y":725.0},"guid":"baa28502-3ee2-4930-8146-2a1f26243565","$version":"A","$type":"Unity.VisualScripting.GetMember","$id":"25"},{"defaultValues":{},"position":{"x":166.0,"y":256.0},"guid":"b6e48a96-7d9f-49de-9c54-70f270c02de1","$version":"A","$type":"Unity.VisualScripting.GenericMultiply","$id":"28"},{"member":{"name":"forward","parameterTypes":null,"targetType":"UnityEngine.Vector3","targetTypeName":"UnityEngine.Vector3","$version":"A"},"defaultValues":{},"position":{"x":-21.0,"y":388.0},"guid":"636f5d68-a563-4163-9eee-ff146a38c4d8","$version":"A","$type":"Unity.VisualScripting.GetMember","$id":"30"},{"specifyFallback":false,"kind":"Object","defaultValues":{"name":{"$content":"","$type":"System.String"},"object":null},"position":{"x":-215.0,"y":588.0},"guid":"49041f8b-0708-408f-a8a4-ae4a336706b7","$version":"A","$type":"Unity.VisualScripting.GetVariable","$id":"33"},{"member":{"name":"deltaTime","parameterTypes":null,"targetType":"UnityEngine.Time","targetTypeName":"UnityEngine.Time","$version":"A"},"defaultValues":{},"position":{"x":-215.0,"y":711.0},"guid":"b3468041-90bd-4982-a73a-a874c1ce8a60","$version":"A","$type":"Unity.VisualScripting.GetMember","$id":"35"},{"defaultValues":{},"position":{"x":-20.0,"y":593.0},"guid":"da7fbd7e-1193-4cab-9129-04ac3b56647c","$version":"A","$type":"Unity.VisualScripting.GenericMultiply","$id":"38"},{"specifyFallback":false,"kind":"Object","defaultValues":{"name":{"$content":"","$type":"System.String"},"object":null},"position":{"x":-217.0,"y":251.0},"guid":"3ef92e3b-0ac2-4ecb-a6b7-a53cb95bd7bc","$version":"A","$type":"Unity.VisualScripting.GetVariable","$id":"40"},{"member":{"name":"deltaTime","parameterTypes":null,"targetType":"UnityEngine.Time","targetTypeName":"UnityEngine.Time","$version":"A"},"defaultValues":{},"position":{"x":-217.0,"y":374.0},"guid":"7e0e7f06-c563-4891-9967-f7bc618eeb5c","$version":"A","$type":"Unity.VisualScripting.GetMember","$id":"42"},{"specifyFallback":false,"kind":"Object","defaultValues":{"name":{"$content":"","$type":"System.String"},"object":null},"position":{"x":-213.0,"y":-467.0},"guid":"7ee0d10c-896a-4f14-81f0-1fea413ddfe0","$version":"A","$type":"Unity.VisualScripting.GetVariable","$id":"45"},{"defaultValues":{},"position":{"x":-1.0,"y":-462.0},"guid":"a9ded385-c5ce-4e08-8481-b6185a1492d9","$version":"A","$type":"Unity.VisualScripting.GenericMultiply","$id":"47"},{"specifyFallback":false,"kind":"Object","defaultValues":{"name":{"$content":"","$type":"System.String"},"object":null},"position":{"x":-213.0,"y":-104.0},"guid":"f836d271-2c54-46c1-a340-a74eb058e60b","$version":"A","$type":"Unity.VisualScripting.GetVariable","$id":"49"},{"defaultValues":{},"position":{"x":162.0,"y":592.0},"guid":"9295d636-4a6a-48d7-b3fb-99c8fb02ae50","$version":"A","$type":"Unity.VisualScripting.GenericMultiply","$id":"51"},{"member":{"name":"deltaTime","parameterTypes":null,"targetType":"UnityEngine.Time","targetTypeName":"UnityEngine.Time","$version":"A"},"defaultValues":{},"position":{"x":-213.0,"y":-339.0},"guid":"2a0ea7b5-cd68-4c7c-bfd9-f99dd04a29f8","$version":"A","$type":"Unity.VisualScripting.GetMember","$id":"53"},{"chainable":false,"parameterNames":["translation"],"member":{"name":"Translate","parameterTypes":["UnityEngine.Vector3"],"targetType":"UnityEngine.Transform","targetTypeName":"UnityEngine.Transform","$version":"A"},"defaultValues":{"target":null,"%translation":{"x":0.0,"y":0.0,"z":0.0,"$type":"UnityEngine.Vector3"}},"position":{"x":343.0,"y":477.0},"guid":"d438dd2d-06c2-4b5c-8a4d-2f94c05c1bb4","$version":"A","$type":"Unity.VisualScripting.InvokeMember","$id":"56"},{"chainable":false,"parameterNames":["key"],"member":{"name":"GetKey","parameterTypes":["UnityEngine.KeyCode"],"targetType":"UnityEngine.Input","targetTypeName":"UnityEngine.Input","$version":"A"},"defaultValues":{"%key":{"$content":"W","$type":"UnityEngine.KeyCode"}},"position":{"x":-214.0,"y":128.0},"guid":"2c5ce77c-7016-4a04-9e3f-4b9c216cc236","$version":"A","$type":"Unity.VisualScripting.InvokeMember","$id":"60"},{"defaultValues":{},"position":{"x":-370.0,"y":-260.0},"guid":"e13ab1f1-23c0-458f-9cd9-a764ebb5a4d6","$version":"A","$type":"Unity.VisualScripting.If","$id":"64"},{"chainable":false,"parameterNames":["key"],"member":{"name":"GetKey","parameterTypes":["UnityEngine.KeyCode"],"targetType":"UnityEngine.Input","targetTypeName":"UnityEngine.Input","$version":"A"},"defaultValues":{"%key":{"$content":"A","$type":"UnityEngine.KeyCode"}},"position":{"x":-214.0,"y":-590.0},"guid":"82ef2d0e-86a6-4110-9701-c1810070cb8f","$version":"A","$type":"Unity.VisualScripting.InvokeMember","$id":"66"},{"chainable":false,"parameterNames":["translation"],"member":{"name":"Translate","parameterTypes":["UnityEngine.Vector3"],"targetType":"UnityEngine.Transform","targetTypeName":"UnityEngine.Transform","$version":"A"},"defaultValues":{"target":null,"%translation":{"x":0.0,"y":0.0,"z":0.0,"$type":"UnityEngine.Vector3"}},"position":{"x":347.0,"y":128.0},"guid":"6cd8a004-c569-48f1-a590-2cfb4a20a095","$version":"A","$type":"Unity.VisualScripting.InvokeMember","$id":"70"},{"defaultValues":{},"position":{"x":-385.0,"y":449.0},"guid":"57623f68-b022-4803-8207-4a2a944a2325","$version":"A","$type":"Unity.VisualScripting.If","$id":"74"},{"chainable":false,"parameterNames":["eulers"],"member":{"name":"Rotate","parameterTypes":["UnityEngine.Vector3"],"targetType":"UnityEngine.Transform","targetTypeName":"UnityEngine.Transform","$version":"A"},"defaultValues":{"target":null,"%eulers":{"x":0.0,"y":0.0,"z":0.0,"$type":"UnityEngine.Vector3"}},"position":{"x":335.0,"y":-238.0},"guid":"c22be2a2-920a-49da-b4ce-03b9fa73c8df","$version":"A","$type":"Unity.VisualScripting.InvokeMember","$id":"76"},{"chainable":false,"parameterNames":["key"],"member":{"name":"GetKey","parameterTypes":["UnityEngine.KeyCode"],"targetType":"UnityEngine.Input","targetTypeName":"UnityEngine.Input","$version":"A"},"defaultValues":{"%key":{"$content":"S","$type":"UnityEngine.KeyCode"}},"position":{"x":-216.0,"y":470.0},"guid":"2af5d1a4-9033-43fd-99df-e3bee9d59788","$version":"A","$type":"Unity.VisualScripting.InvokeMember","$id":"80"},{"coroutine":false,"defaultValues":{},"position":{"x":-561.0,"y":449.0},"guid":"07c16c46-f544-4217-9264-31304e2b7069","$version":"A","$type":"Unity.VisualScripting.Update","$id":"84"},{"chainable":false,"parameterNames":["eulers"],"member":{"name":"Rotate","parameterTypes":["UnityEngine.Vector3"],"targetType":"UnityEngine.Transform","targetTypeName":"UnityEngine.Transform","$version":"A"},"defaultValues":{"target":null,"%eulers":{"x":0.0,"y":0.0,"z":0.0,"$type":"UnityEngine.Vector3"}},"position":{"x":330.0,"y":-588.0},"guid":"81348155-e1c0-4cbf-a880-d7079d545d69","$version":"A","$type":"Unity.VisualScripting.InvokeMember","$id":"86"},{"member":{"name":"deltaTime","parameterTypes":null,"targetType":"UnityEngine.Time","targetTypeName":"UnityEngine.Time","$version":"A"},"defaultValues":{},"position":{"x":-214.0,"y":25.0},"guid":"15d8e78b-b945-4b06-9c85-5a92d0ccf28c","$version":"A","$type":"Unity.VisualScripting.GetMember","$id":"90"},{"chainable":false,"parameterNames":["key"],"member":{"name":"GetKey","parameterTypes":["UnityEngine.KeyCode"],"targetType":"UnityEngine.Input","targetTypeName":"UnityEngine.Input","$version":"A"},"defaultValues":{"%key":{"$content":"D","$type":"UnityEngine.KeyCode"}},"position":{"x":-212.0,"y":-239.0},"guid":"3642b297-03c0-4c2f-b509-bc83bb2caca9","$version":"A","$type":"Unity.VisualScripting.InvokeMember","$id":"93"},{"sourceUnit":{"$ref":"74"},"sourceKey":"ifTrue","destinationUnit":{"$ref":"60"},"destinationKey":"enter","guid":"69b41a42-7b43-469b-a290-d3855733de4f","$type":"Unity.VisualScripting.ControlConnection"},{"sourceUnit":{"$ref":"64"},"sourceKey":"ifFalse","destinationUnit":{"$ref":"93"},"destinationKey":"enter","guid":"e1810988-4fd2-4510-9572-4303fe48d951","$type":"Unity.VisualScripting.ControlConnection"},{"sourceUnit":{"$ref":"60"},"sourceKey":"exit","destinationUnit":{"$ref":"70"},"destinationKey":"enter","guid":"5a9252c1-d9cd-4c2c-9bfe-1a94ebabca7c","$type":"Unity.VisualScripting.ControlConnection"},{"sourceUnit":{"$ref":"80"},"sourceKey":"exit","destinationUnit":{"$ref":"56"},"destinationKey":"enter","guid":"d755a763-d92f-45ee-8d8a-3d813fe15c57","$type":"Unity.VisualScripting.ControlConnection"},{"sourceUnit":{"$ref":"84"},"sourceKey":"trigger","destinationUnit":{"$ref":"74"},"destinationKey":"enter","guid":"aebee651-b6bb-41b5-a0db-21c54c9608c1","$type":"Unity.VisualScripting.ControlConnection"},{"sourceUnit":{"$ref":"64"},"sourceKey":"ifTrue","destinationUnit":{"$ref":"66"},"destinationKey":"enter","guid":"5434bd24-c9a2-4ade-9463-a1ecd81525a2","$type":"Unity.VisualScripting.ControlConnection"},{"sourceUnit":{"$ref":"66"},"sourceKey":"exit","destinationUnit":{"$ref":"86"},"destinationKey":"enter","guid":"f18f4a3a-9cd9-46b1-96b9-8ed8ac35a405","$type":"Unity.VisualScripting.ControlConnection"},{"sourceUnit":{"$ref":"93"},"sourceKey":"exit","destinationUnit":{"$ref":"76"},"destinationKey":"enter","guid":"3800b19b-367f-47de-b958-e7ce3b29f547","$type":"Unity.VisualScripting.ControlConnection"},{"sourceUnit":{"$ref":"74"},"sourceKey":"ifFalse","destinationUnit":{"$ref":"80"},"destinationKey":"enter","guid":"6674cd7a-ea3c-4442-bba1-6957c40de92b","$type":"Unity.VisualScripting.ControlConnection"},{"sourceUnit":{"$ref":"9"},"sourceKey":"trigger","destinationUnit":{"$ref":"64"},"destinationKey":"enter","guid":"1f3d7617-eee9-43c7-b5d0-0c47aea66663","$type":"Unity.VisualScripting.ControlConnection"},{"sourceUnit":{"$ref":"42"},"sourceKey":"value","destinationUnit":{"$ref":"11"},"destinationKey":"b","guid":"8b474902-b744-4ac9-a1ac-a11cdcd0e1f0","$type":"Unity.VisualScripting.ValueConnection"},{"sourceUnit":{"$ref":"47"},"sourceKey":"product","destinationUnit":{"$ref":"13"},"destinationKey":"a","guid":"93e458b1-4209-4eab-8e38-569614ff8d5a","$type":"Unity.VisualScripting.ValueConnection"},{"sourceUnit":{"$ref":"53"},"sourceKey":"value","destinationUnit":{"$ref":"47"},"destinationKey":"b","guid":"377c378e-3f9c-4325-8172-04a9707aaaa8","$type":"Unity.VisualScripting.ValueConnection"},{"sourceUnit":{"$ref":"45"},"sourceKey":"value","destinationUnit":{"$ref":"47"},"destinationKey":"a","guid":"97f203bd-f7c0-420a-9e10-e0eb37f42080","$type":"Unity.VisualScripting.ValueConnection"},{"sourceUnit":{"$ref":"30"},"sourceKey":"value","destinationUnit":{"$ref":"28"},"destinationKey":"b","guid":"51609105-0255-46c6-81b4-6b0c55d10ed8","$type":"Unity.VisualScripting.ValueConnection"},{"sourceUnit":{"$ref":"40"},"sourceKey":"value","destinationUnit":{"$ref":"11"},"destinationKey":"a","guid":"68e89f82-7f0f-4ce7-a3a6-3e33a237591b","$type":"Unity.VisualScripting.ValueConnection"},{"sourceUnit":{"$ref":"38"},"sourceKey":"product","destinationUnit":{"$ref":"51"},"destinationKey":"a","guid":"2435799d-4d12-4722-ab81-dfa66eab1740","$type":"Unity.VisualScripting.ValueConnection"},{"sourceUnit":{"$ref":"22"},"sourceKey":"value","destinationUnit":{"$ref":"20"},"destinationKey":"b","guid":"1b893515-ef97-4586-9caa-b806e967b347","$type":"Unity.VisualScripting.ValueConnection"},{"sourceUnit":{"$ref":"18"},"sourceKey":"product","destinationUnit":{"$ref":"20"},"destinationKey":"a","guid":"1ad1d405-6b5a-497d-b954-645f9c6bd4e2","$type":"Unity.VisualScripting.ValueConnection"},{"sourceUnit":{"$ref":"90"},"sourceKey":"value","destinationUnit":{"$ref":"18"},"destinationKey":"b","guid":"4cf5aefe-154b-4a87-be56-6c53db2e8342","$type":"Unity.VisualScripting.ValueConnection"},{"sourceUnit":{"$ref":"15"},"sourceKey":"value","destinationUnit":{"$ref":"13"},"destinationKey":"b","guid":"bb60404f-09a7-49b4-b08c-86cf23bc7e0e","$type":"Unity.VisualScripting.ValueConnection"},{"sourceUnit":{"$ref":"13"},"sourceKey":"product","destinationUnit":{"$ref":"86"},"destinationKey":"%eulers","guid":"a9f2c8e3-0670-4303-9586-9cc0a4fd254c","$type":"Unity.VisualScripting.ValueConnection"},{"sourceUnit":{"$ref":"51"},"sourceKey":"product","destinationUnit":{"$ref":"56"},"destinationKey":"%translation","guid":"0fbc1d18-277a-4cdf-8496-df533b61a73c","$type":"Unity.VisualScripting.ValueConnection"},{"sourceUnit":{"$ref":"49"},"sourceKey":"value","destinationUnit":{"$ref":"18"},"destinationKey":"a","guid":"306e1a93-6b5b-4702-a21b-4e571f208370","$type":"Unity.VisualScripting.ValueConnection"},{"sourceUnit":{"$ref":"33"},"sourceKey":"value","destinationUnit":{"$ref":"38"},"destinationKey":"a","guid":"5b4dab1c-019f-4ffd-8f04-f62ed2818583","$type":"Unity.VisualScripting.ValueConnection"},{"sourceUnit":{"$ref":"28"},"sourceKey":"product","destinationUnit":{"$ref":"70"},"destinationKey":"%translation","guid":"2f614efd-02af-433f-b144-139c4c9badf9","$type":"Unity.VisualScripting.ValueConnection"},{"sourceUnit":{"$ref":"11"},"sourceKey":"product","destinationUnit":{"$ref":"28"},"destinationKey":"a","guid":"29aaad7d-60d4-4ab9-bdbe-e755a814b289","$type":"Unity.VisualScripting.ValueConnection"},{"sourceUnit":{"$ref":"20"},"sourceKey":"product","destinationUnit":{"$ref":"76"},"destinationKey":"%eulers","guid":"2f1b3400-e444-4781-bff3-07b8bf8f200e","$type":"Unity.VisualScripting.ValueConnection"},{"sourceUnit":{"$ref":"35"},"sourceKey":"value","destinationUnit":{"$ref":"38"},"destinationKey":"b","guid":"0db5f3d7-7326-4baa-9eb2-05906d7b363f","$type":"Unity.VisualScripting.ValueConnection"},{"sourceUnit":{"$ref":"25"},"sourceKey":"value","destinationUnit":{"$ref":"51"},"destinationKey":"b","guid":"d0d830e5-9b72-4e84-b069-4de39f98e0f1","$type":"Unity.VisualScripting.ValueConnection"}],"$version":"A"}}'
    _objectReferences: []
