%YAML 1.1
%TAG !u! tag:unity3d.com,2011:
--- !u!114 &11400000
MonoBehaviour:
  m_ObjectHideFlags: 0
  m_CorrespondingSourceObject: {fileID: 0}
  m_PrefabInstance: {fileID: 0}
  m_PrefabAsset: {fileID: 0}
  m_GameObject: {fileID: 0}
  m_Enabled: 1
  m_EditorHideFlags: 0
  m_Script: {fileID: 11500000, guid: 95e66c6366d904e98bc83428217d4fd7, type: 3}
  m_Name: PlayerFPSController
  m_EditorClassIdentifier: 
  _data:
    _json: '{"graph":{"variables":{"Kind":"Flow","collection":{"$content":[],"$version":"A"},"$version":"A"},"controlInputDefinitions":[],"controlOutputDefinitions":[],"valueInputDefinitions":[],"valueOutputDefinitions":[],"title":null,"summary":null,"pan":{"x":-202.3333,"y":242.7888},"zoom":0.8,"elements":[{"coroutine":false,"defaultValues":{},"position":{"x":-885.0,"y":64.0},"guid":"d2bc353a-5ce6-47fe-aafb-756d7a11e61c","$version":"A","$type":"Unity.VisualScripting.Update","$id":"9"},{"specifyFallback":false,"kind":"Object","defaultValues":{"name":{"$content":"hMovement","$type":"System.String"},"object":null},"position":{"x":-887.0,"y":155.0},"guid":"58a38e05-0152-43ac-beac-e3ed9241d918","$version":"A","$type":"Unity.VisualScripting.GetVariable","$id":"11"},{"member":{"name":"deltaTime","parameterTypes":null,"targetType":"UnityEngine.Time","targetTypeName":"UnityEngine.Time","$version":"A"},"defaultValues":{},"position":{"x":-523.0,"y":544.0},"guid":"b5f736ff-ea7a-4d9d-8b20-abcd64d08dd9","$version":"A","$type":"Unity.VisualScripting.GetMember","$id":"13"},{"coroutine":false,"defaultValues":{},"position":{"x":-884.0,"y":-174.0},"guid":"b781778a-f3d9-4274-8096-1277e45d2059","$version":"A","$type":"Unity.VisualScripting.Start","$id":"16"},{"chainable":false,"parameterNames":["name"],"member":{"name":"Find","parameterTypes":["System.String"],"targetType":"UnityEngine.GameObject","targetTypeName":"UnityEngine.GameObject","$version":"A"},"defaultValues":{"%name":{"$content":"R2-D2","$type":"System.String"}},"position":{"x":-644.0,"y":-175.0},"guid":"e4a444bc-8d8f-4b50-9e7a-db1be8dfdbe7","$version":"A","$type":"Unity.VisualScripting.InvokeMember","$id":"18"},{"chainable":false,"parameterNames":["value"],"member":{"name":"SetActive","parameterTypes":["System.Boolean"],"targetType":"UnityEngine.GameObject","targetTypeName":"UnityEngine.GameObject","$version":"A"},"defaultValues":{"target":null,"%value":{"$content":false,"$type":"System.Boolean"}},"position":{"x":-438.0,"y":-97.0},"guid":"4a675243-3ece-4744-a891-85ac67c6b5a7","$version":"A","$type":"Unity.VisualScripting.InvokeMember","$id":"22"},{"member":{"name":"visible","parameterTypes":null,"targetType":"UnityEngine.Cursor","targetTypeName":"UnityEngine.Cursor","$version":"A"},"defaultValues":{},"position":{"x":-647.0,"y":-54.0},"guid":"df8c90af-61e3-4712-af28-b72241c5b760","$version":"A","$type":"Unity.VisualScripting.GetMember","$id":"26"},{"member":{"name":"deltaTime","parameterTypes":null,"targetType":"UnityEngine.Time","targetTypeName":"UnityEngine.Time","$version":"A"},"defaultValues":{},"position":{"x":-542.0,"y":1095.0},"guid":"ac76d8b1-ee79-471c-a379-43845758a01f","$version":"A","$type":"Unity.VisualScripting.GetMember","$id":"29"},{"defaultValues":{},"position":{"x":-338.0,"y":1076.0},"guid":"d2258d03-2d94-4977-bc04-82c15b484752","$version":"A","$type":"Unity.VisualScripting.GenericMultiply","$id":"32"},{"specifyFallback":false,"kind":"Object","defaultValues":{"name":{"$content":"hRotationSpeed","$type":"System.String"},"object":null},"position":{"x":-728.0,"y":1014.0},"guid":"bb58923c-ea15-4396-a051-f7da8f30675c","$version":"A","$type":"Unity.VisualScripting.GetVariable","$id":"34"},{"defaultValues":{},"position":{"x":-511.0,"y":971.0},"guid":"ae19e8b3-3581-4fba-9c35-17b19e424f4d","$version":"A","$type":"Unity.VisualScripting.GenericMultiply","$id":"36"},{"chainable":false,"parameterNames":["axisName"],"member":{"name":"GetAxis","parameterTypes":["System.String"],"targetType":"UnityEngine.Input","targetTypeName":"UnityEngine.Input","$version":"A"},"defaultValues":{"%axisName":{"$content":"Mouse
      X","$type":"System.String"}},"position":{"x":-729.0,"y":898.0},"guid":"1d332977-0c94-4956-af28-49a9d3a8a9ce","$version":"A","$type":"Unity.VisualScripting.InvokeMember","$id":"38"},{"coroutine":false,"defaultValues":{},"position":{"x":-894.0,"y":898.0},"guid":"3cd9403d-874e-4adc-ad87-765306882984","$version":"A","$type":"Unity.VisualScripting.Update","$id":"42"},{"member":{"name":"transform","parameterTypes":null,"targetType":"UnityEngine.Camera","targetTypeName":"UnityEngine.Camera","$version":"A"},"defaultValues":{"target":null},"position":{"x":-367.0,"y":979.0},"guid":"09cfe6be-3a92-4742-9596-dfd1c3aab75e","$version":"A","$type":"Unity.VisualScripting.GetMember","$id":"44"},{"chainable":false,"parameterNames":["xAngle","yAngle","zAngle"],"member":{"name":"Rotate","parameterTypes":["System.Single","System.Single","System.Single"],"targetType":"UnityEngine.Transform","targetTypeName":"UnityEngine.Transform","$version":"A"},"defaultValues":{"target":null,"%xAngle":{"$content":0.0,"$type":"System.Single"},"%yAngle":{"$content":0.0,"$type":"System.Single"},"%zAngle":{"$content":0.0,"$type":"System.Single"}},"position":{"x":-179.0,"y":643.0},"guid":"34c3e37e-b467-4b4c-8ac8-371c12d5b824","$version":"A","$type":"Unity.VisualScripting.InvokeMember","$id":"47"},{"chainable":false,"parameterNames":["xAngle","yAngle","zAngle"],"member":{"name":"Rotate","parameterTypes":["System.Single","System.Single","System.Single"],"targetType":"UnityEngine.Transform","targetTypeName":"UnityEngine.Transform","$version":"A"},"defaultValues":{"target":null,"%xAngle":{"$content":0.0,"$type":"System.Single"},"%yAngle":{"$content":0.0,"$type":"System.Single"},"%zAngle":{"$content":0.0,"$type":"System.Single"}},"position":{"x":-160.0,"y":901.0},"guid":"5b2460be-263f-4f2c-bc80-f9feeefc4492","$version":"A","$type":"Unity.VisualScripting.InvokeMember","$id":"51"},{"chainable":false,"parameterNames":["translation"],"member":{"name":"Translate","parameterTypes":["UnityEngine.Vector3"],"targetType":"UnityEngine.Transform","targetTypeName":"UnityEngine.Transform","$version":"A"},"defaultValues":{"target":null,"%translation":{"x":0.0,"y":0.0,"z":0.0,"$type":"UnityEngine.Vector3"}},"position":{"x":95.0,"y":192.0},"guid":"f4699935-bac7-4e08-bbe6-826b62228bc1","$version":"A","$type":"Unity.VisualScripting.InvokeMember","$id":"55"},{"member":{"name":"right","parameterTypes":null,"targetType":"UnityEngine.Vector3","targetTypeName":"UnityEngine.Vector3","$version":"A"},"defaultValues":{},"position":{"x":-883.0,"y":270.0},"guid":"2fba0161-6815-4d49-b683-12d679a58e0c","$version":"A","$type":"Unity.VisualScripting.GetMember","$id":"59"},{"chainable":false,"member":{"name":"lockState","parameterTypes":null,"targetType":"UnityEngine.Cursor","targetTypeName":"UnityEngine.Cursor","$version":"A"},"defaultValues":{"input":{"$content":"Locked","$type":"UnityEngine.CursorLockMode"}},"position":{"x":-231.0,"y":-96.0},"guid":"76940014-6b2d-48c9-a334-39fbf1fc5037","$version":"A","$type":"Unity.VisualScripting.SetMember","$id":"62"},{"specifyFallback":false,"kind":"Object","defaultValues":{"name":{"$content":"vMovement","$type":"System.String"},"object":null},"position":{"x":-883.0,"y":366.0},"guid":"08ad72a4-1c39-457c-afdb-b5dfebe987b5","$version":"A","$type":"Unity.VisualScripting.GetVariable","$id":"65"},{"member":{"name":"forward","parameterTypes":null,"targetType":"UnityEngine.Vector3","targetTypeName":"UnityEngine.Vector3","$version":"A"},"defaultValues":{},"position":{"x":-879.0,"y":481.0},"guid":"e2bf4b4f-e331-45ac-bae2-4ef976dc5fa6","$version":"A","$type":"Unity.VisualScripting.GetMember","$id":"67"},{"member":{"name":"deltaTime","parameterTypes":null,"targetType":"UnityEngine.Time","targetTypeName":"UnityEngine.Time","$version":"A"},"defaultValues":{},"position":{"x":-514.0,"y":838.0},"guid":"48575d81-10b3-461e-bb5c-cb03784c3a4f","$version":"A","$type":"Unity.VisualScripting.GetMember","$id":"70"},{"defaultValues":{},"position":{"x":-342.0,"y":719.0},"guid":"eaf41abd-a3dc-4246-8173-10415b17e9bf","$version":"A","$type":"Unity.VisualScripting.GenericMultiply","$id":"73"},{"specifyFallback":false,"kind":"Object","defaultValues":{"name":{"$content":"vRotationSpeed","$type":"System.String"},"object":null},"position":{"x":-718.0,"y":758.0},"guid":"9f249049-2814-4ce0-a6ba-8e6397bbe6b8","$version":"A","$type":"Unity.VisualScripting.GetVariable","$id":"75"},{"defaultValues":{},"position":{"x":-497.0,"y":717.0},"guid":"e3dc826c-92e1-4e17-ae74-d697a9c766f8","$version":"A","$type":"Unity.VisualScripting.GenericMultiply","$id":"77"},{"kind":"Flow","defaultValues":{"name":{"$content":"vMovement","$type":"System.String"}},"position":{"x":-80.0,"y":58.0},"guid":"52bc5fcf-421a-4839-bf8b-2d28359e7a7c","$version":"A","$type":"Unity.VisualScripting.SetVariable","$id":"79"},{"chainable":false,"parameterNames":["axisName"],"member":{"name":"GetAxis","parameterTypes":["System.String"],"targetType":"UnityEngine.Input","targetTypeName":"UnityEngine.Input","$version":"A"},"defaultValues":{"%axisName":{"$content":"Vertical","$type":"System.String"}},"position":{"x":-300.0,"y":63.0},"guid":"2e087db7-99c3-4e3c-ae86-870ce57c9318","$version":"A","$type":"Unity.VisualScripting.InvokeMember","$id":"81"},{"kind":"Flow","defaultValues":{"name":{"$content":"hMovement","$type":"System.String"}},"position":{"x":-483.0,"y":58.0},"guid":"fe0ab741-5e58-4ea9-a9da-794ae334a11f","$version":"A","$type":"Unity.VisualScripting.SetVariable","$id":"85"},{"chainable":false,"parameterNames":["axisName"],"member":{"name":"GetAxis","parameterTypes":["System.String"],"targetType":"UnityEngine.Input","targetTypeName":"UnityEngine.Input","$version":"A"},"defaultValues":{"%axisName":{"$content":"Mouse
      Y","$type":"System.String"}},"position":{"x":-719.0,"y":642.0},"guid":"7ca85225-c6bc-464b-82ff-437f4af0f2dc","$version":"A","$type":"Unity.VisualScripting.InvokeMember","$id":"87"},{"defaultValues":{},"position":{"x":-226.0,"y":302.0},"guid":"237a9e0e-dc3f-4b1c-86e5-b79e315895cf","$version":"A","$type":"Unity.VisualScripting.GenericMultiply","$id":"91"},{"coroutine":false,"defaultValues":{},"position":{"x":-884.0,"y":642.0},"guid":"0250b57b-ebbb-4f56-8dc7-f4a9dd4cfd95","$version":"A","$type":"Unity.VisualScripting.Update","$id":"93"},{"specifyFallback":false,"kind":"Object","defaultValues":{"name":{"$content":"walkSpeed","$type":"System.String"},"object":null},"position":{"x":-525.0,"y":425.0},"guid":"62ec17ac-f5ba-4e06-a735-4b8468d94fc4","$version":"A","$type":"Unity.VisualScripting.GetVariable","$id":"95"},{"defaultValues":{},"position":{"x":-365.0,"y":465.0},"guid":"535b6551-8bc3-41d2-b6a6-4ad1390a44ba","$version":"A","$type":"Unity.VisualScripting.GenericMultiply","$id":"97"},{"inputCount":2,"defaultValues":{},"position":{"x":-591.0,"y":292.0},"guid":"430cb930-1ee3-4bbe-9ee0-a93f0fb51664","$version":"A","$type":"Unity.VisualScripting.GenericSum","$id":"99"},{"defaultValues":{},"position":{"x":-709.0,"y":425.0},"guid":"79df2830-4a5a-4f0d-ba85-982dfe0f2b47","$version":"A","$type":"Unity.VisualScripting.GenericMultiply","$id":"101"},{"defaultValues":{},"position":{"x":-717.0,"y":213.0},"guid":"67cc3468-37f2-425f-a2cf-7169a24ee539","$version":"A","$type":"Unity.VisualScripting.GenericMultiply","$id":"103"},{"chainable":false,"parameterNames":["axisName"],"member":{"name":"GetAxis","parameterTypes":["System.String"],"targetType":"UnityEngine.Input","targetTypeName":"UnityEngine.Input","$version":"A"},"defaultValues":{"%axisName":{"$content":"Horizontal","$type":"System.String"}},"position":{"x":-722.0,"y":64.0},"guid":"b092fd25-66ae-4fdd-b6a8-58153d710613","$version":"A","$type":"Unity.VisualScripting.InvokeMember","$id":"105"},{"sourceUnit":{"$ref":"87"},"sourceKey":"exit","destinationUnit":{"$ref":"47"},"destinationKey":"enter","guid":"25bb388a-a389-47bf-a37a-50931f384cdd","$type":"Unity.VisualScripting.ControlConnection"},{"sourceUnit":{"$ref":"93"},"sourceKey":"trigger","destinationUnit":{"$ref":"87"},"destinationKey":"enter","guid":"5de9e88f-676e-41d1-81e2-6e2c4d5b721e","$type":"Unity.VisualScripting.ControlConnection"},{"sourceUnit":{"$ref":"79"},"sourceKey":"assigned","destinationUnit":{"$ref":"55"},"destinationKey":"enter","guid":"6efe2646-bb7f-4d29-974f-bf4eb5903b43","$type":"Unity.VisualScripting.ControlConnection"},{"sourceUnit":{"$ref":"85"},"sourceKey":"assigned","destinationUnit":{"$ref":"81"},"destinationKey":"enter","guid":"1d42e37c-7ed0-478c-8d9d-4eeb10b8cdf0","$type":"Unity.VisualScripting.ControlConnection"},{"sourceUnit":{"$ref":"81"},"sourceKey":"exit","destinationUnit":{"$ref":"79"},"destinationKey":"assign","guid":"ef7197ac-9a41-4b28-9b68-32c70f892b0a","$type":"Unity.VisualScripting.ControlConnection"},{"sourceUnit":{"$ref":"105"},"sourceKey":"exit","destinationUnit":{"$ref":"85"},"destinationKey":"assign","guid":"2541b8a8-429b-4f5d-9a83-790b7795ede8","$type":"Unity.VisualScripting.ControlConnection"},{"sourceUnit":{"$ref":"9"},"sourceKey":"trigger","destinationUnit":{"$ref":"105"},"destinationKey":"enter","guid":"f879cb6f-ca2e-4028-8ff3-c108ca9acbfa","$type":"Unity.VisualScripting.ControlConnection"},{"sourceUnit":{"$ref":"16"},"sourceKey":"trigger","destinationUnit":{"$ref":"18"},"destinationKey":"enter","guid":"8b0cff83-147b-482f-a358-d84b6bdb26d3","$type":"Unity.VisualScripting.ControlConnection"},{"sourceUnit":{"$ref":"42"},"sourceKey":"trigger","destinationUnit":{"$ref":"38"},"destinationKey":"enter","guid":"cb1a8704-bb83-4223-ba6a-f50928871b12","$type":"Unity.VisualScripting.ControlConnection"},{"sourceUnit":{"$ref":"38"},"sourceKey":"exit","destinationUnit":{"$ref":"51"},"destinationKey":"enter","guid":"48f95b27-8930-453c-9ba8-33f961be0117","$type":"Unity.VisualScripting.ControlConnection"},{"sourceUnit":{"$ref":"22"},"sourceKey":"exit","destinationUnit":{"$ref":"62"},"destinationKey":"assign","guid":"b8ddfdaa-ffc0-4bb1-a4c1-b142a100d275","$type":"Unity.VisualScripting.ControlConnection"},{"sourceUnit":{"$ref":"18"},"sourceKey":"exit","destinationUnit":{"$ref":"22"},"destinationKey":"enter","guid":"0a38ed65-af68-4522-980b-ebf47d43b10a","$type":"Unity.VisualScripting.ControlConnection"},{"sourceUnit":{"$ref":"11"},"sourceKey":"value","destinationUnit":{"$ref":"103"},"destinationKey":"a","guid":"d690309a-bbf3-4d34-a0d5-8b9c8a0b4b06","$type":"Unity.VisualScripting.ValueConnection"},{"sourceUnit":{"$ref":"99"},"sourceKey":"sum","destinationUnit":{"$ref":"91"},"destinationKey":"a","guid":"9b4f21c2-163b-4ce7-8b3a-67e4d824fad1","$type":"Unity.VisualScripting.ValueConnection"},{"sourceUnit":{"$ref":"101"},"sourceKey":"product","destinationUnit":{"$ref":"99"},"destinationKey":"1","guid":"57982a0a-6f2f-4502-a8c5-4bc48a7e5489","$type":"Unity.VisualScripting.ValueConnection"},{"sourceUnit":{"$ref":"67"},"sourceKey":"value","destinationUnit":{"$ref":"101"},"destinationKey":"b","guid":"8953956e-20c3-43de-ad54-51db9b7b687f","$type":"Unity.VisualScripting.ValueConnection"},{"sourceUnit":{"$ref":"65"},"sourceKey":"value","destinationUnit":{"$ref":"101"},"destinationKey":"a","guid":"3aadc067-ea34-4b21-be1c-7bcc8d97ac5f","$type":"Unity.VisualScripting.ValueConnection"},{"sourceUnit":{"$ref":"59"},"sourceKey":"value","destinationUnit":{"$ref":"103"},"destinationKey":"b","guid":"2bcac661-f545-4e6e-a3b8-a107dd8d05db","$type":"Unity.VisualScripting.ValueConnection"},{"sourceUnit":{"$ref":"77"},"sourceKey":"product","destinationUnit":{"$ref":"73"},"destinationKey":"a","guid":"caf0a16f-3485-481b-8133-b7d51a99fc57","$type":"Unity.VisualScripting.ValueConnection"},{"sourceUnit":{"$ref":"73"},"sourceKey":"product","destinationUnit":{"$ref":"47"},"destinationKey":"%yAngle","guid":"e6679ef3-672f-4970-8d32-ed9e07656184","$type":"Unity.VisualScripting.ValueConnection"},{"sourceUnit":{"$ref":"70"},"sourceKey":"value","destinationUnit":{"$ref":"73"},"destinationKey":"b","guid":"910ddb03-d7cb-4c02-bd42-605d096f36cc","$type":"Unity.VisualScripting.ValueConnection"},{"sourceUnit":{"$ref":"26"},"sourceKey":"value","destinationUnit":{"$ref":"22"},"destinationKey":"%value","guid":"c20b18c3-59e4-441a-b1af-fac334ce821e","$type":"Unity.VisualScripting.ValueConnection"},{"sourceUnit":{"$ref":"29"},"sourceKey":"value","destinationUnit":{"$ref":"32"},"destinationKey":"b","guid":"a05d790d-46a8-4a5a-bc60-665e20d8eeb6","$type":"Unity.VisualScripting.ValueConnection"},{"sourceUnit":{"$ref":"36"},"sourceKey":"product","destinationUnit":{"$ref":"32"},"destinationKey":"a","guid":"7b49c49a-99ee-496e-9a9c-f6b37c256784","$type":"Unity.VisualScripting.ValueConnection"},{"sourceUnit":{"$ref":"34"},"sourceKey":"value","destinationUnit":{"$ref":"36"},"destinationKey":"b","guid":"748e25fc-ff12-4118-8963-dd56f12f63f7","$type":"Unity.VisualScripting.ValueConnection"},{"sourceUnit":{"$ref":"38"},"sourceKey":"result","destinationUnit":{"$ref":"36"},"destinationKey":"a","guid":"9f0f5d6f-f520-410b-ab77-ba0e07853728","$type":"Unity.VisualScripting.ValueConnection"},{"sourceUnit":{"$ref":"95"},"sourceKey":"value","destinationUnit":{"$ref":"97"},"destinationKey":"a","guid":"52b18819-028f-4552-bddc-cf2826a9df4f","$type":"Unity.VisualScripting.ValueConnection"},{"sourceUnit":{"$ref":"103"},"sourceKey":"product","destinationUnit":{"$ref":"99"},"destinationKey":"0","guid":"3d6f321d-b15a-4661-9c6c-17051dd847dc","$type":"Unity.VisualScripting.ValueConnection"},{"sourceUnit":{"$ref":"87"},"sourceKey":"result","destinationUnit":{"$ref":"77"},"destinationKey":"a","guid":"b3f2eb81-4191-4f90-9bb0-c309d7b59f19","$type":"Unity.VisualScripting.ValueConnection"},{"sourceUnit":{"$ref":"105"},"sourceKey":"result","destinationUnit":{"$ref":"85"},"destinationKey":"input","guid":"9ec556f3-3919-4cac-8432-eae09df169e6","$type":"Unity.VisualScripting.ValueConnection"},{"sourceUnit":{"$ref":"32"},"sourceKey":"product","destinationUnit":{"$ref":"51"},"destinationKey":"%xAngle","guid":"05889fa7-432a-4a12-9627-7ae15b478b7c","$type":"Unity.VisualScripting.ValueConnection"},{"sourceUnit":{"$ref":"81"},"sourceKey":"result","destinationUnit":{"$ref":"79"},"destinationKey":"input","guid":"1e72570a-be7d-41d1-9466-e4144a56f1c3","$type":"Unity.VisualScripting.ValueConnection"},{"sourceUnit":{"$ref":"13"},"sourceKey":"value","destinationUnit":{"$ref":"97"},"destinationKey":"b","guid":"5c1e26d5-8108-4905-b97b-fdf88dcefc8c","$type":"Unity.VisualScripting.ValueConnection"},{"sourceUnit":{"$ref":"97"},"sourceKey":"product","destinationUnit":{"$ref":"91"},"destinationKey":"b","guid":"42aaa48c-cf63-4850-9694-7b56700878e1","$type":"Unity.VisualScripting.ValueConnection"},{"sourceUnit":{"$ref":"91"},"sourceKey":"product","destinationUnit":{"$ref":"55"},"destinationKey":"%translation","guid":"a5f0278b-40c1-431b-a7fc-d12a2db97a1b","$type":"Unity.VisualScripting.ValueConnection"},{"sourceUnit":{"$ref":"75"},"sourceKey":"value","destinationUnit":{"$ref":"77"},"destinationKey":"b","guid":"8e8af4fc-b64e-4455-9304-e95bc6d435a6","$type":"Unity.VisualScripting.ValueConnection"},{"sourceUnit":{"$ref":"44"},"sourceKey":"value","destinationUnit":{"$ref":"51"},"destinationKey":"target","guid":"809ae640-9840-4abb-8f1f-a0c2648acfa6","$type":"Unity.VisualScripting.ValueConnection"}],"$version":"A"}}'
    _objectReferences: []
